/* XPM */
static char * load_selection_xpm[] = {
/* width height num_colors chars_per_pixel */
"24 24 4 1",
/* colors */
" 	c None",
".	c black",
"X	c #7f7f7f",
"o	c #00007f",
/* pixels */
"                        ",
"                        ",
"                        ",
"     ...............    ",
"     ...............    ",
"     .XXXXXXXXXXXXX.    ",
"     ...............    ",
"     .XXXXXXXXXXXXX.    ",
"     ...............    ",
"     .XXXXXXXXXXXXX.    ",
"     ...............    ",
"                        ",
"             oo         ",
"             oo         ",
"             oo         ",
"     o      ooo         ",
"    oo    oooo          ",
"   oooooooooo           ",
"   oooooooo             ",
"    oo                  ",
"     o                  ",
"                        ",
"                        ",
"                        "};
